[
  {
    "id": 1,
    "name": "Lauren Bennett",
    "creditScore": 350,
    "address": "2786 Werninger Street, Houston,Texas, USA"
  },
  {
    "id": 2,
    "name": "George Cooper",
    "creditScore": 653,
    "address": "2353 Quarry Drive, Montgomery,Alabama, USA"
  },
  {
    "id": 3,
    "name": "Liza King",
    "creditScore": 539,
    "address": "4589 Fleming Street, Mongomary, Alabama, USA"
  },
  {
    "id": 4,
    "name": "Frazer Harrison",
    "creditScore": 706,
    "address": "Noordstraat 171, Bomal-sur-Ourthe, Belgium"
  },
  {
    "id": 5,
    "name": "Brenda Williamson",
    "creditScore": 734,
    "address": "Netelaan 1135, Kolmont, Belgium"
  },
  {
    "id": 6,
    "name": "Jerry Drew Associates",
    "creditScore": 832,
    "address": "Orchideeenlaan 129, Merchtem, Belgium"
  },
  {
    "id": 7,
    "name": "Baker Corp",
    "creditScore": 849,
    "address": "82 Manor Close, Dilton, UK"
  },
  {
    "id": 8,
    "name": "Carter Industries",
    "creditScore": 799,
    "address": "58 Bridge Street, Gorllwyn, UK"
  },
  {
    "id": 9,
    "name": "Raven and Co",
    "creditScore": 802,
    "address": "119 New Dover Rd, Walditch, UK"
  },
  {
    "id": 10,
    "name": "Tesla, Inc.",
    "creditScore": 850,
    "address": "3500 DEER CREEK RD PALO, California, USA"
  },
  {
    "id": 11,
    "name": "Larry Graham",
    "creditScore": 499,
    "address": "Lambrechtstraat 297, Westmalle, Belgium"
  },
  {
    "id": 12,
    "name": "Cloe Weaver",
    "creditScore": 795,
    "address": "Rue des Honnelles 124, Zandvoorde, Belgium"
  }
]